// Jest Snapshot v1, https://goo.gl/fbAQLP

exports[`Navbar renders correctly 1`] = `
<div
  className="ui borderless top fixed menu"
  style={
    Object {
      "backgroundColor": "#fff",
      "border": "1px solid #ddd",
      "boxShadow": "0px 3px 5px rgba(0, 0, 0, 0.2)",
    }
  }
>
  <div
    className="ui text container"
  >
    <div
      className="item"
      onClick={[Function]}
    >
      <img
        className="ui mini image"
        src="https://dog.ceo/img/dog-api-logo.svg"
      />
    </div>
    <div
      className="header item"
      onClick={[Function]}
    >
      Dog UI
    </div>
    <div
      className="right item"
      onClick={[Function]}
    >
      <div
        aria-busy={true}
        aria-disabled={undefined}
        aria-expanded={false}
        className="ui loading search selection dropdown"
        onBlur={[Function]}
        onChange={[Function]}
        onClick={[Function]}
        onFocus={[Function]}
        onMouseDown={[Function]}
        role="combobox"
        tabIndex={undefined}
      >
        <input
          aria-autocomplete="list"
          autoComplete="off"
          className="search"
          onChange={[Function]}
          style={
            Object {
              "width": undefined,
            }
          }
          tabIndex={0}
          type="text"
          value=""
        />
        <div
          aria-live="polite"
          className="default text"
          role="alert"
        >
          Select breed...
        </div>
        <i
          aria-hidden="true"
          className="dropdown icon"
          onClick={[Function]}
        />
        <div
          aria-multiselectable={undefined}
          className="menu transition"
          role="listbox"
        >
          <div
            className="message"
          >
            No results found.
          </div>
        </div>
      </div>
    </div>
  </div>
</div>
`;
